Download and Extract Data from CompTox Chemistry Dashboard — extr_comptox • extractox
…
#> # A tibble: 2 × 3
#>   dsstox_link_to_dashboard preferred_name chemical_entity_query  
#>   <chr>                    <chr>          <chr>                  
#> 1 DTXSID5020108            Aspirin        50-78-2 OR Aspirin     
#> 2 DTXSID7020637            Formaldehyde   50-00-0 OR Formaldehyde
#> 
#> $comptox_synonym_identifier
#> # A tibble: 2 × 3
#>   searched_chemical identifier                                          pc_codes
#>   <chr>             <chr>                                               <chr>   
#> 1 Aspirin           Synonym data is too big for the Excel cell - Refer… PC-1290…
#> 2 Formaldehyde      NSC 298885|UN 2209|Formalin 40|Superlysoform|Forma… PC-0430…
#> 
#> $comptox_related_relationships
#> # A tibble: 60 × 7
#>    input   dtxsid        preferred_name has_relationship_with  related_dtxsid 
#>    <chr>   <chr>         <chr>          <chr>                  <chr>          
#>  1 Aspirin DTXSID5020108 Aspirin        Searched Chemical      DTXSID5020108  
#>  2 Aspirin DTXSID5020108 Aspirin        Predecessor: Component DTXSID0020109  
#>  3 Aspirin DTXSID5020108 Aspirin        Predecessor: Component DTXSID701336718
#>  4 Aspirin DTXSID5020108 Aspirin        Transformation Product DTXSID5021708  
#>  5 50-00-0 DTXSID7020637 Formaldehyde   Searched Chemical      DTXSID7020637  
#>  6 50-00-0 DTXSID7020637 Formaldehyde   Predecessor: Component DTXSID6029709  
#>  7 50-00-0 DTXSID7020637 Formaldehyde   Predecessor: Component DTXSID6029757  
#>  8 50-00-0 DTXSID7020637 Formaldehyde   Predecessor: Component DTXSID60873853 
#>  9 50-00-0 DTXSID7020637 Formaldehyde   Predecessor: Component DTXSID60905168 
#> 10 50-00-0 DTXSID7020637 Formaldehyde   Predecessor: Component DTXSID6094144  
#> # ℹ 50 more rows
#> # ℹ 2 more variables: related_preferred_name <chr>, related_casrn <chr>
#> 
#> $comptox_toxcast_assays_ac50
#> # A tibble: 1,485 × 3
#>    input                            x50_00_0_dtxsid7020637 aspirin_dtxsid5020108
#>    <chr>                            <chr>                  <chr>                
#>  1 ACEA_AR_agonist_80hr             -                      1000000.0            
#>  2 ACEA_AR_agonist_AUC_viability    -                      1000000.0            
#>  3 ACEA_AR_antagonist_80hr          -                      1000000.0            
#>  4 ACEA_AR_antagonist_AUC_viability -                      1000000.0            
#>  5 ACEA_ER_80hr                     -                      1000000.0            
#>  6 ACEA_ER_AUC_viability            -                      1000000.0            
#>  7 APR_HepG2_CellCycleArrest_1hr    -                      -                    
#>  8 APR_HepG2_CellCycleArrest_24hr   -                      1000000.0            
#>  9 APR_HepG2_CellCycleArrest_72hr   -                      1000000.0            
#> 10 APR_HepG2_CellLoss_1hr           -                      -                    
#> # ℹ 1,475 more rows
#> 
#> $comptox_toxval_details
#> # A tibble: 158 × 63
#>    searched_chemical dtxsid        casrn   name    source sub_source toxval_type
#>    <chr>             <chr>         <chr>   <chr>   <chr>  <chr>      <chr>      
#>  1 Aspirin           DTXSID5020108 50-78-2 Aspirin NLM C… -          LD50       
#>  2 Aspirin           DTXSID5020108 50-78-2 Aspirin NLM C… -          LD50       
#>  3 Aspirin           DTXSID5020108 50-78-2 Aspirin NLM C… -          LD50       
#>  4 Aspirin           DTXSID5020108 50-78-2 Aspirin GESTI… -          DNEL syste…
#>  5 Aspirin           DTXSID5020108 50-78-2 Aspirin DOD M… TLVadj     MEG        
#>  6 Aspirin           DTXSID5020108 50-78-2 Aspirin DOD M… TLV_TWA    MEG        
#>  7 Aspirin           DTXSID5020108 50-78-2 Aspirin DOD M… TLV_TWA    MEG        
#>  8 Aspirin           DTXSID5020108 50-78-2 Aspirin ECHA … Developme… NOAEL      
#>  9 Aspirin           DTXSID5020108 50-78-2 Aspirin ECHA … Developme… NOAEL      
#> 10 Aspirin           DTXSID5020108 50-78-2 Aspirin EPA E… EPA ORD    LOEL       
#> # ℹ 148 more rows
#> # ℹ 56 more variables: toxval_subtype <chr>, toxval_type_supercategory <chr>,
#> #   qualifier <chr>, toxval_numeric <dbl>, toxval_units <chr>,
#> #   risk_assessment_class <chr>, study_type <chr>, study_duration_class <chr>,
#> #   study_duration_value <dbl>, study_duration_units <chr>,
#> #   species_common <chr>, strain <chr>, latin_name <chr>,
#> #   species_supercategory <chr>, sex <chr>, generation <chr>, …
#> 
#> $comptox_chemical_properties
#> # A tibble: 103 × 8
#>    dtxsid        dtxcid      type         name    value units source description
#>    <chr>         <chr>       <chr>        <chr>   <chr> <chr> <chr>  <chr>      
#>  1 DTXSID7020637 DTXCID30637 experimental pKa Ba… 1.15  Log1… Data … "This pKa …
#>  2 DTXSID5020108 DTXCID50108 predicted    liquid… 0.92  min   OPERA… "OPERA is …
#>  3 DTXSID5020108 DTXCID50108 predicted    Water … 0.02… mol/L TEST   "The <a hr…
#>  4 DTXSID5020108 DTXCID50108 predicted    Water … 0.02… mol/L EPISU… "<a href='…
#>  5 DTXSID7020637 DTXCID30637 predicted    Meltin… -105… °C    OPERA… "OPERA is …
#>  6 DTXSID7020637 DTXCID30637 predicted    Meltin… -79.… °C    TEST   "The <a hr…
#>  7 DTXSID7020637 DTXCID30637 predicted    Boilin… -16.… °C    TEST   "The <a hr…
#>  8 DTXSID7020637 DTXCID30637 predicted    Viscos… 0.25… cP    TEST   "The <a hr…
#>  9 DTXSID7020637 DTXCID30637 predicted    Density 0.861 g/cm… TEST   "The <a hr…
#> 10 DTXSID7020637 DTXCID30637 predicted    Surfac… 22.0… dyn/… TEST   "The <a hr…
#> # ℹ 93 more rows
…
